…
18:12:01.71: AutoML: starting StackedEnsemble_AllModels_6_AutoML_1_20221001_171413 model training
18:12:03.309: AutoML: starting DeepLearning_grid_1_AutoML_1_20221001_171413 hyperparameter search
18:12:52.442: AutoML: starting GBM_grid_1_AutoML_1_20221001_171413 hyperparameter search
18:13:23.65: AutoML: starting StackedEnsemble_Best1000_1_AutoML_1_20221001_171413 model training
18:13:24.199: New leader: StackedEnsemble_Best1000_1_AutoML_1_20221001_171413, rmse: 3.004373174911526
18:13:24.199: Actual modeling steps: [{GLM : [def_1 (1g, 10w)]}, {GBM : [def_5 (1g, 10w)]}, {StackedEnsemble : [best_of_family_1 (1g, 5w)]}, {DRF : [def_1 (2g, 10w)]}, {GBM : [def_2 (2g, 10w), def_3 (2g, 10w), def_4 (2g, 10w)]}, {StackedEnsemble : [best_of_family_2 (2g, 5w), all_2 (2g, 10w)]}, {DRF : [XRT (3g, 10w)]}, {GBM : [def_1 (3g, 10w)]}, {DeepLearning : [def_1 (3g, 10w)]}, {StackedEnsemble : [best_of_family_3 (3g, 5w), all_3 (3g, 10w)]}, {GBM : [grid_1 (4g, 60w)]}, {DeepLearning : [grid_1 (4g, 30w)]}, {StackedEnsemble : [best_of_family_4 (4g, 5w), all_4 (4g, 10w)]}, {DeepLearning : [grid_2 (5g, 30w), grid_3 (5g, 30w)]}, {StackedEnsemble : [all_5 (5g, 10w)]}, {GBM : [lr_annealing (6g, 10w)]}, {StackedEnsemble : [best_of_family_gbm (6g, 10w), all_gbm (7g, 10w), best_of_family_xglm (8g, 10w), all_xglm (8g, 10w)]}, {completion : [resume_best_grids (10g, 60w)]}, {StackedEnsemble : [best_N (10g, 10w)]}]
18:13:24.200: AutoML build stopped: 2022.10.01 18:13:24.199
18:13:24.200: AutoML build done: built 326 models
18:13:24.200: AutoML duration: 59 min 10.354 sec> 
> # autoplot(barly_pca_aml_fit, metric = "rmse")
> 
> barly_pca_aml_fit %>% 
+   extract_fit_engine() %>% 
+   get_leaderboard()
# A tibble: 339 × 6
   model_id                                      rmse   mse   mae  rmsle mean_…¹
   <chr>                                        <dbl> <dbl> <dbl>  <dbl>   <dbl>
 1 StackedEnsemble_Best1000_1_AutoML_1_2022100…  3.00  9.03  1.96 NA        9.03
 2 StackedEnsemble_AllModels_5_AutoML_1_202210…  3.00  9.03  1.90  0.473    9.03
 3 StackedEnsemble_AllModels_6_AutoML_1_202210…  3.02  9.09  1.97 NA        9.09
 4 StackedEnsemble_AllModels_4_AutoML_1_202210…  3.02  9.11  1.98 NA        9.11
 5 StackedEnsemble_AllModels_3_AutoML_1_202210…  3.17 10.1   2.12 NA       10.1 
 6 StackedEnsemble_BestOfFamily_5_AutoML_1_202…  3.37 11.3   2.19  0.517   11.3 
 7 StackedEnsemble_BestOfFamily_4_AutoML_1_202…  3.44 11.8   2.32 NA       11.8 
 8 StackedEnsemble_BestOfFamily_6_AutoML_1_202…  3.44 11.8   2.32 NA       11.8 
 9 DeepLearning_grid_1_AutoML_1_20221001_17141…  3.51 12.3   2.41 NA       12.3 
10 DeepLearning_grid_1_AutoML_1_20221001_17141…  3.65 13.3   2.52 NA       13.3 
# … with 329 more rows, and abbreviated variable name ¹​mean_residual_deviance
…
19:12:24.414: AutoML: starting StackedEnsemble_BestOfFamily_6_AutoML_2_20221001_181342 model training
19:12:24.816: AutoML: starting StackedEnsemble_AllModels_6_AutoML_2_20221001_181342 model training
19:12:30.730: AutoML: starting DeepLearning_grid_1_AutoML_2_20221001_181342 hyperparameter search
19:12:58.154: AutoML: starting GBM_grid_1_AutoML_2_20221001_181342 hyperparameter search
19:13:14.963: AutoML: starting StackedEnsemble_Best1000_1_AutoML_2_20221001_181342 model training
19:13:17.728: Actual modeling steps: [{GLM : [def_1 (1g, 10w)]}, {GBM : [def_5 (1g, 10w)]}, {StackedEnsemble : [best_of_family_1 (1g, 5w)]}, {DRF : [def_1 (2g, 10w)]}, {GBM : [def_2 (2g, 10w), def_3 (2g, 10w), def_4 (2g, 10w)]}, {StackedEnsemble : [best_of_family_2 (2g, 5w), all_2 (2g, 10w)]}, {DRF : [XRT (3g, 10w)]}, {GBM : [def_1 (3g, 10w)]}, {DeepLearning : [def_1 (3g, 10w)]}, {StackedEnsemble : [best_of_family_3 (3g, 5w), all_3 (3g, 10w)]}, {GBM : [grid_1 (4g, 60w)]}, {DeepLearning : [grid_1 (4g, 30w)]}, {StackedEnsemble : [best_of_family_4 (4g, 5w), all_4 (4g, 10w)]}, {DeepLearning : [grid_2 (5g, 30w), grid_3 (5g, 30w)]}, {StackedEnsemble : [all_5 (5g, 10w)]}, {GBM : [lr_annealing (6g, 10w)]}, {StackedEnsemble : [best_of_family_gbm (6g, 10w), all_gbm (7g, 10w), best_of_family_xglm (8g, 10w), all_xglm (8g, 10w)]}, {completion : [resume_best_grids (10g, 60w)]}, {StackedEnsemble : [best_N (10g, 10w)]}]
19:13:17.728: AutoML build stopped: 2022.10.01 19:13:17.728
19:13:17.728: AutoML build done: built 530 models
19:13:17.728: AutoML duration: 59 min 35.056 sec> 
> # autoplot(barly_pls_aml_fit, metric = "rmse")
> 
> barly_pls_aml_fit %>% 
+   extract_fit_engine() %>% 
+   get_leaderboard()
# A tibble: 543 × 6
   model_id                                      rmse   mse   mae  rmsle mean_…¹
   <chr>                                        <dbl> <dbl> <dbl>  <dbl>   <dbl>
 1 StackedEnsemble_AllModels_5_AutoML_2_202210…  2.98  8.87  1.89  0.464    8.87
 2 StackedEnsemble_AllModels_6_AutoML_2_202210…  3.03  9.16  2.00 NA        9.16
 3 StackedEnsemble_BestOfFamily_5_AutoML_2_202…  3.32 11.0   2.16  0.509   11.0 
 4 StackedEnsemble_BestOfFamily_4_AutoML_2_202…  3.37 11.3   2.28 NA       11.3 
 5 StackedEnsemble_BestOfFamily_6_AutoML_2_202…  3.37 11.3   2.27 NA       11.3 
 6 DeepLearning_grid_1_AutoML_2_20221001_18134…  3.48 12.1   2.41 NA       12.1 
 7 DeepLearning_grid_1_AutoML_2_20221001_18134…  3.59 12.9   2.49 NA       12.9 
 8 StackedEnsemble_AllModels_2_AutoML_2_202210…  3.65 13.3   2.44 NA       13.3 
 9 DeepLearning_grid_1_AutoML_2_20221001_18134…  3.67 13.5   2.60 NA       13.5 
10 DeepLearning_grid_1_AutoML_2_20221001_18134…  3.70 13.7   2.65 NA       13.7 
# … with 533 more rows, and abbreviated variable name ¹​mean_residual_deviance
…
